('C:\\Users\\Santiago\\Downloads\\ejecutable\\build\\ejemplo\\ejemplo.exe',
 True,
 False,
 True,
 None,
 None,
 False,
 False,
 '<?xml version="1.0" encoding="UTF-8" standalone="yes"?><assembly xmlns="urn:schemas-microsoft-com:asm.v1" manifestVersion="1.0"><assemblyIdentity type="win32" name="ejemplo" processorArchitecture="x86" version="1.0.0.0"/><dependency><dependentAssembly><assemblyIdentity type="win32" name="Microsoft.Windows.Common-Controls" language="*" processorArchitecture="*" version="6.0.0.0" publicKeyToken="6595b64144ccf1df"/><compatibility xmlns="urn:schemas-microsoft-com:compatibility.v1"/></dependentAssembly></dependency><compatibility xmlns="urn:schemas-microsoft-com:compatibility.v1"><application><supportedOS Id="{e2011457-1546-43c5-a5fe-008deee3d3f0}"/><supportedOS Id="{35138b9a-5d96-4fbd-8e2d-a2440225f93a}"/><supportedOS Id="{4a2f28e3-53b9-4441-ba9c-d69d4a4a6e38}"/><supportedOS Id="{1f676c76-80e1-4239-95bb-83d0f6d0da78}"/><supportedOS Id="{8e0f7a12-bfb3-4fe8-b9a5-48fd50a15a9a}"/></application></compatibility></assembly>',
 True,
 'ejemplo.pkg',
 [('PYZ-00.pyz',
   'C:\\Users\\Santiago\\Downloads\\ejecutable\\build\\ejemplo\\PYZ-00.pyz',
   'PYZ'),
  ('struct',
   'c:\\users\\santiago\\appdata\\local\\programs\\python\\python38-32\\lib\\struct.pyo',
   'PYMODULE'),
  ('pyimod01_os_path',
   'c:\\users\\santiago\\appdata\\local\\programs\\python\\python38-32\\lib\\site-packages\\PyInstaller\\loader\\pyimod01_os_path.pyc',
   'PYMODULE'),
  ('pyimod02_archive',
   'c:\\users\\santiago\\appdata\\local\\programs\\python\\python38-32\\lib\\site-packages\\PyInstaller\\loader\\pyimod02_archive.pyc',
   'PYMODULE'),
  ('pyimod03_importers',
   'c:\\users\\santiago\\appdata\\local\\programs\\python\\python38-32\\lib\\site-packages\\PyInstaller\\loader\\pyimod03_importers.pyc',
   'PYMODULE'),
  ('pyiboot01_bootstrap',
   'c:\\users\\santiago\\appdata\\local\\programs\\python\\python38-32\\lib\\site-packages\\PyInstaller\\loader\\pyiboot01_bootstrap.py',
   'PYSOURCE'),
  ('pyi_rth__tkinter',
   'C:\\Users\\Santiago\\AppData\\Local\\Programs\\Python\\Python38-32\\Lib\\site-packages\\PyInstaller\\loader\\rthooks\\pyi_rth__tkinter.py',
   'PYSOURCE'),
  ('pyi_rth_multiprocessing',
   'C:\\Users\\Santiago\\AppData\\Local\\Programs\\Python\\Python38-32\\Lib\\site-packages\\PyInstaller\\loader\\rthooks\\pyi_rth_multiprocessing.py',
   'PYSOURCE'),
  ('ejemplo',
   'C:\\Users\\Santiago\\Downloads\\ejecutable\\ejemplo.py',
   'PYSOURCE'),
  ('ejemplo.exe.manifest',
   'C:\\Users\\Santiago\\Downloads\\ejecutable\\build\\ejemplo\\ejemplo.exe.manifest',
   'BINARY')],
 [],
 False,
 False,
 1584145252,
 [('run.exe',
   'c:\\users\\santiago\\appdata\\local\\programs\\python\\python38-32\\lib\\site-packages\\PyInstaller\\bootloader\\Windows-32bit\\run.exe',
   'EXECUTABLE')])
